…
Variables table
---------------

``` r
DT_var <- makeDT_var(DT)
DT_var[20:30,]
```

    ## # A tibble: 11 x 2
    ##    題號    內容                                             
    ##    <chr>   <chr>                                            
    ##  1 v1      1.性別                                           
    ##  2 v2y     2.請問您是什麼時候出生的(以身分證上的為主)?民國年
    ##  3 v2m     2.請問您是什麼時候出生的(以身分證上的為主)?月    
    ##  4 v2a     2.請問您大約幾歲?                                
    ##  5 v3city  3.請問您出生在什麼地方?省/縣/市                  
    ##  6 kv3city 3.請問您出生在什麼地方?其他                      
    ##  7 v3zip   3.請問您出生在什麼地方?鄉/鎮/市/區               
    ##  8 v4      4.請問您父親是哪裡人?                            
    ##  9 kv4     4.請問您父親是哪裡人?其他                        
    ## 10 v5      5.請問您母親是哪裡人?                            
    ## 11 kv5     5.請問您母親是哪裡人?其他

Recoding
--------

This function is based on sjmisc package.

rec\_new can recode in four datatypes, including numeric, factor, character, logical.

### numeric to numeric

``` r
rec_new(DT$v6a,"1,2=1;3=2;4,5=3;6,7,8,9=4;10:15=5;16:19=6;20=7;21=8;97=NA;else=copy")
```

    ##  [1] 4 6 7 4 4 6 3 3 6 4 5 3 4 6 3 4 4 5 4 4 7 2 3 7 4 3 7 7 5 5 7 6 5 6 6
    ## [36] 6 4 7 6 6 2 6 4 6 3 6 4 5 5 2
    ##  [ reached getOption("max.print") -- omitted 1984 entries ]
…
Make dummy variables
====================

only for factor

``` r
DT_new <- rec.dym(DT$edu,DT = DT[c("id","neweduc")],name = "edu_")
DT_new 
```

    ## # A tibble: 2,034 x 6
    ##        id neweduc edu_mid edu_high edu_low edu_no
    ##     <dbl> <chr>     <dbl>    <dbl>   <dbl>  <dbl>
    ##  1 103101 mid           1        0       0      0
    ##  2 103110 high          0        1       0      0
    ##  3 103111 high          0        1       0      0
    ##  4 103112 mid           1        0       0      0
    ##  5 103116 mid           1        0       0      0
    ##  6 103118 high          0        1       0      0
    ##  7 103120 low           0        0       1      0
    ##  8 103121 low           0        0       1      0
    ##  9 103123 high          0        1       0      0
    ## 10 103127 mid           1        0       0      0
    ## # … with 2,024 more rows
…
